^C:\USERS\DANIL\DOCUMENTS\VISUAL STUDIO 2017\PROJECTS\CONNECTIP\KRYPTO++\ADHOC.CPP.PROTO
if not exist adhoc.cpp copy "C:\Users\Danil\Documents\Visual Studio 2017\Projects\ConnectIP\krypto++\adhoc.cpp.proto" adhoc.cpp        echo: >> adhoc.cpp.copied
^C:\USERS\DANIL\DOCUMENTS\VISUAL STUDIO 2017\PROJECTS\CONNECTIP\KRYPTO++\RDRAND.ASM
ml64.exe /c /nologo /D_M_X64 /W3 /Cx /Zi /Fo"x64\cryptlib\DLL-Import Debug\rdrand-x64.obj" "C:\Users\Danil\Documents\Visual Studio 2017\Projects\ConnectIP\krypto++\rdrand.asm"
^C:\USERS\DANIL\DOCUMENTS\VISUAL STUDIO 2017\PROJECTS\CONNECTIP\KRYPTO++\X64MASM.ASM
ml64.exe /c /nologo /D_M_X64 /W3 /Zi /Fo"x64\cryptlib\DLL-Import Debug\x64masm.obj" "C:\Users\Danil\Documents\Visual Studio 2017\Projects\ConnectIP\krypto++\x64masm.asm"
