^C:\Users\Danil\Documents\Visual Studio 2017\Projects\ConnectIP\CreditalProvider\C++\SampleV2CredentialProvider.vcxproj
C:\Users\Danil\Documents\Visual Studio 2017\Projects\ConnectIP\CreditalProvider\C++\x64\Release\SampleV2CredentialProvider.lib
C:\Users\Danil\Documents\Visual Studio 2017\Projects\ConnectIP\CreditalProvider\C++\x64\Release\SampleV2CredentialProvider.exp
C:\Users\Danil\Documents\Visual Studio 2017\Projects\ConnectIP\CreditalProvider\C++\x64\Release\SampleV2CredentialProvider.ipdb
C:\Users\Danil\Documents\Visual Studio 2017\Projects\ConnectIP\CreditalProvider\C++\x64\Release\SampleV2CredentialProvider.iobj
