c:\users\danil\documents\visual studio 2017\projects\apriory\project\connectip\creditalprovider\c++\debug\vc141.pdb
c:\users\danil\documents\visual studio 2017\projects\apriory\project\connectip\creditalprovider\c++\debug\vc141.idb
c:\users\danil\documents\visual studio 2017\projects\apriory\project\connectip\creditalprovider\c++\debug\guid.obj
c:\users\danil\documents\visual studio 2017\projects\apriory\project\connectip\creditalprovider\c++\debug\helpers.obj
c:\users\danil\documents\visual studio 2017\projects\apriory\project\connectip\creditalprovider\c++\debug\samplev2.98e74d71.tlog\cl.command.1.tlog
c:\users\danil\documents\visual studio 2017\projects\apriory\project\connectip\creditalprovider\c++\debug\samplev2.98e74d71.tlog\cl.read.1.tlog
c:\users\danil\documents\visual studio 2017\projects\apriory\project\connectip\creditalprovider\c++\debug\samplev2.98e74d71.tlog\cl.write.1.tlog
