^C:\USERS\DANIL\DOCUMENTS\VISUAL STUDIO 2017\PROJECTS\CONNECTIP\KRYPTO++\ADHOC.CPP.PROTO
C:\USERS\DANIL\DOCUMENTS\VISUAL STUDIO 2017\PROJECTS\CONNECTIP\KRYPTO++\ADHOC.CPP.COPIED
^C:\USERS\DANIL\DOCUMENTS\VISUAL STUDIO 2017\PROJECTS\CONNECTIP\KRYPTO++\RDRAND.ASM
C:\USERS\DANIL\DOCUMENTS\VISUAL STUDIO 2017\PROJECTS\CONNECTIP\KRYPTO++\WIN32\CRYPTLIB\DLL-IMPORT RELEASE\RDRAND-X86.OBJ
