^C:\USERS\DANIL\DOCUMENTS\VISUAL STUDIO 2017\PROJECTS\CONNECTIP\CONNECTIP\DEBUG\CONNECTIP.OBJ|C:\USERS\DANIL\DOCUMENTS\VISUAL STUDIO 2017\PROJECTS\CONNECTIP\CONNECTIP\DEBUG\STDAFX.OBJ
C:\USERS\DANIL\DOCUMENTS\VISUAL STUDIO 2017\PROJECTS\CONNECTIP\DEBUG\CONNECTIP.ILK
C:\USERS\DANIL\DOCUMENTS\VISUAL STUDIO 2017\PROJECTS\CONNECTIP\DEBUG\CONNECTIP.EXE
C:\USERS\DANIL\DOCUMENTS\VISUAL STUDIO 2017\PROJECTS\CONNECTIP\DEBUG\CONNECTIP.PDB
